-------------------------------------------------------------------------------
Test set: jexperi.TestStr
-------------------------------------------------------------------------------
Tests run: 3, Failures: 0, Errors: 0, Skipped: 0, Time elapsed: 0.121 sec
